Dice_game/dice_game/tb/transcript
# //  Questa Sim-64
# //  Version 10.7c win64 Aug 18 2018
# //
# //  Copyright 1991-2018 Mentor Graphics Corporation
# //  All Rights Reserved.
# //
# //  QuestaSim and its associated documentation contain trade
# //  secrets and commercial or financial information that are the property of
# //  Mentor Graphics Corporation and are privileged, confidential,
# //  and exempt from disclosure under the Freedom of Information Act,
# //  5 U.S.C. Section 552. Furthermore, this information
# //  is prohibited from disclosure under the Trade Secrets Act,
# //  18 U.S.C. Section 1905.
# //
# OpenFile testbench.sv
vsim -voptargs=+acc work.tbench_top
# vsim -voptargs="+acc" work.tbench_top 
# Start time: 11:27:34 on Jun 08,2024
# ** Note: (vsim-8009) Loading existing optimized design _opt
# Loading sv_std.std
# Loading work.tbench_top(fast)
# Loading work.dice_game(fast)
add wave sim:/tbench_top/DUT/*
run -all
# at                    0,clk=0,rst=0,sum= 0,rb=0,roll=0,win=0,lose=0,next_state=0
# at                   10,clk=1,rst=0,sum= 0,rb=0,roll=0,win=0,lose=0,next_state=0
# at                   20,clk=0,rst=1,sum= 7,rb=1,roll=0,win=0,lose=0,next_state=1
# at                   30,clk=1,rst=1,sum= 7,rb=1,roll=1,win=1,lose=0,next_state=2
# at                   40,clk=0,rst=1,sum=11,rb=1,roll=1,win=1,lose=0,next_state=2
# at                   50,clk=1,rst=1,sum=11,rb=1,roll=1,win=1,lose=0,next_state=2
# at                   60,clk=0,rst=1,sum=12,rb=1,roll=1,win=1,lose=0,next_state=2
# at                   70,clk=1,rst=1,sum=12,rb=1,roll=1,win=1,lose=0,next_state=2
# at                   80,clk=0,rst=1,sum= 2,rb=1,roll=1,win=1,lose=0,next_state=2
# at                   90,clk=1,rst=1,sum= 2,rb=1,roll=1,win=1,lose=0,next_state=2
# at                  100,clk=0,rst=1,sum= 3,rb=1,roll=1,win=1,lose=0,next_state=2
# at                  110,clk=1,rst=1,sum= 3,rb=1,roll=1,win=1,lose=0,next_state=2
# at                  120,clk=0,rst=1,sum= 7,rb=1,roll=1,win=1,lose=0,next_state=2
# at                  130,clk=1,rst=1,sum= 7,rb=1,roll=1,win=1,lose=0,next_state=2
# at                  140,clk=0,rst=1,sum= 5,rb=1,roll=1,win=1,lose=0,next_state=2
# at                  150,clk=1,rst=1,sum= 5,rb=1,roll=1,win=1,lose=0,next_state=2
# at                  160,clk=0,rst=1,sum= 8,rb=1,roll=1,win=1,lose=0,next_state=2
# at                  170,clk=1,rst=1,sum= 8,rb=1,roll=1,win=1,lose=0,next_state=2
# at                  180,clk=0,rst=1,sum=15,rb=1,roll=1,win=1,lose=0,next_state=2
# at                  190,clk=1,rst=1,sum=15,rb=1,roll=1,win=1,lose=0,next_state=2
# at                  200,clk=0,rst=1,sum=12,rb=1,roll=1,win=1,lose=0,next_state=2
# at                  210,clk=1,rst=1,sum=12,rb=1,roll=1,win=1,lose=0,next_state=2
# at                  220,clk=0,rst=1,sum= 2,rb=1,roll=1,win=1,lose=0,next_state=2
# at                  230,clk=1,rst=1,sum= 2,rb=1,roll=1,win=1,lose=0,next_state=2
# at                  240,clk=0,rst=1,sum= 3,rb=1,roll=1,win=1,lose=0,next_state=2
# at                  250,clk=1,rst=1,sum= 3,rb=1,roll=1,win=1,lose=0,next_state=2
# at                  260,clk=0,rst=1,sum= 7,rb=1,roll=1,win=1,lose=0,next_state=2
# at                  270,clk=1,rst=1,sum= 7,rb=1,roll=1,win=1,lose=0,next_state=2
# at                  280,clk=0,rst=1,sum= 7,rb=1,roll=1,win=1,lose=0,next_state=2
# at                  290,clk=1,rst=1,sum= 7,rb=1,roll=1,win=1,lose=0,next_state=2
# at                  300,clk=0,rst=1,sum= 7,rb=1,roll=1,win=1,lose=0,next_state=2
# at                  310,clk=1,rst=1,sum= 7,rb=1,roll=1,win=1,lose=0,next_state=2
# at                  320,clk=0,rst=1,sum= 7,rb=1,roll=1,win=1,lose=0,next_state=2
# at                  330,clk=1,rst=1,sum= 7,rb=1,roll=1,win=1,lose=0,next_state=2
# at                  340,clk=0,rst=1,sum= 7,rb=1,roll=1,win=1,lose=0,next_state=2
# at                  350,clk=1,rst=1,sum= 7,rb=1,roll=1,win=1,lose=0,next_state=2
# at                  360,clk=0,rst=1,sum= 7,rb=1,roll=1,win=1,lose=0,next_state=2
# at                  370,clk=1,rst=1,sum= 7,rb=1,roll=1,win=1,lose=0,next_state=2
# at                  380,clk=0,rst=1,sum= 7,rb=1,roll=1,win=1,lose=0,next_state=2
# at                  390,clk=1,rst=1,sum= 7,rb=1,roll=1,win=1,lose=0,next_state=2
# at                  400,clk=0,rst=1,sum= 7,rb=1,roll=1,win=1,lose=0,next_state=2
# at                  410,clk=1,rst=1,sum= 7,rb=1,roll=1,win=1,lose=0,next_state=2
# at                  420,clk=0,rst=1,sum= 7,rb=1,roll=1,win=1,lose=0,next_state=2
# at                  430,clk=1,rst=1,sum= 7,rb=1,roll=1,win=1,lose=0,next_state=2
# at                  440,clk=0,rst=1,sum= 7,rb=1,roll=1,win=1,lose=0,next_state=2
# at                  450,clk=1,rst=1,sum= 7,rb=1,roll=1,win=1,lose=0,next_state=2
# at                  460,clk=0,rst=1,sum= 7,rb=1,roll=1,win=1,lose=0,next_state=2
# at                  470,clk=1,rst=1,sum= 7,rb=1,roll=1,win=1,lose=0,next_state=2
# at                  480,clk=0,rst=1,sum= 7,rb=1,roll=1,win=1,lose=0,next_state=2
# at                  490,clk=1,rst=1,sum= 7,rb=1,roll=1,win=1,lose=0,next_state=2
# at                  500,clk=0,rst=1,sum= 7,rb=1,roll=1,win=1,lose=0,next_state=2
# at                  510,clk=1,rst=1,sum= 7,rb=1,roll=1,win=1,lose=0,next_state=2
# at                  520,clk=0,rst=1,sum= 7,rb=1,roll=1,win=1,lose=0,next_state=2
# at                  530,clk=1,rst=1,sum= 7,rb=1,roll=1,win=1,lose=0,next_state=2
# at                  540,clk=0,rst=1,sum= 7,rb=1,roll=1,win=1,lose=0,next_state=2
# at                  550,clk=1,rst=1,sum= 7,rb=1,roll=1,win=1,lose=0,next_state=2
# at                  560,clk=0,rst=1,sum= 7,rb=1,roll=1,win=1,lose=0,next_state=2
# at                  570,clk=1,rst=1,sum= 7,rb=1,roll=1,win=1,lose=0,next_state=2
# at                  580,clk=0,rst=1,sum= 7,rb=1,roll=1,win=1,lose=0,next_state=2
# at                  590,clk=1,rst=1,sum= 7,rb=1,roll=1,win=1,lose=0,next_state=2
# at                  600,clk=0,rst=1,sum= 7,rb=1,roll=1,win=1,lose=0,next_state=2
# at                  610,clk=1,rst=1,sum= 7,rb=1,roll=1,win=1,lose=0,next_state=2
# at                  620,clk=0,rst=1,sum= 7,rb=1,roll=1,win=1,lose=0,next_state=2
# at                  630,clk=1,rst=1,sum= 7,rb=1,roll=1,win=1,lose=0,next_state=2
# at                  640,clk=0,rst=1,sum= 7,rb=1,roll=1,win=1,lose=0,next_state=2
# at                  650,clk=1,rst=1,sum= 7,rb=1,roll=1,win=1,lose=0,next_state=2
# at                  660,clk=0,rst=1,sum= 7,rb=1,roll=1,win=1,lose=0,next_state=2
# at                  670,clk=1,rst=1,sum= 7,rb=1,roll=1,win=1,lose=0,next_state=2
# at                  680,clk=0,rst=1,sum= 7,rb=1,roll=1,win=1,lose=0,next_state=2
# at                  690,clk=1,rst=1,sum= 7,rb=1,roll=1,win=1,lose=0,next_state=2
# at                  700,clk=0,rst=1,sum= 7,rb=1,roll=1,win=1,lose=0,next_state=2
# at                  710,clk=1,rst=1,sum= 7,rb=1,roll=1,win=1,lose=0,next_state=2
# at                  720,clk=0,rst=1,sum= 7,rb=1,roll=1,win=1,lose=0,next_state=2
# at                  730,clk=1,rst=1,sum= 7,rb=1,roll=1,win=1,lose=0,next_state=2
# at                  740,clk=0,rst=1,sum= 7,rb=1,roll=1,win=1,lose=0,next_state=2
# at                  750,clk=1,rst=1,sum= 7,rb=1,roll=1,win=1,lose=0,next_state=2
# at                  760,clk=0,rst=1,sum= 7,rb=1,roll=1,win=1,lose=0,next_state=2
# at                  770,clk=1,rst=1,sum= 7,rb=1,roll=1,win=1,lose=0,next_state=2
# at                  780,clk=0,rst=1,sum= 7,rb=1,roll=1,win=1,lose=0,next_state=2
# at                  790,clk=1,rst=1,sum= 7,rb=1,roll=1,win=1,lose=0,next_state=2
# at                  800,clk=0,rst=1,sum= 7,rb=1,roll=1,win=1,lose=0,next_state=2
# at                  810,clk=1,rst=1,sum= 7,rb=1,roll=1,win=1,lose=0,next_state=2
# at                  820,clk=0,rst=1,sum= 7,rb=1,roll=1,win=1,lose=0,next_state=2
# at                  830,clk=1,rst=1,sum= 7,rb=1,roll=1,win=1,lose=0,next_state=2
# at                  840,clk=0,rst=1,sum= 7,rb=1,roll=1,win=1,lose=0,next_state=2
# at                  850,clk=1,rst=1,sum= 7,rb=1,roll=1,win=1,lose=0,next_state=2
# at                  860,clk=0,rst=1,sum= 7,rb=1,roll=1,win=1,lose=0,next_state=2
# at                  870,clk=1,rst=1,sum= 7,rb=1,roll=1,win=1,lose=0,next_state=2
# at                  880,clk=0,rst=1,sum= 7,rb=1,roll=1,win=1,lose=0,next_state=2
# at                  890,clk=1,rst=1,sum= 7,rb=1,roll=1,win=1,lose=0,next_state=2
# at                  900,clk=0,rst=1,sum= 7,rb=1,roll=1,win=1,lose=0,next_state=2
# at                  910,clk=1,rst=1,sum= 7,rb=1,roll=1,win=1,lose=0,next_state=2
# at                  920,clk=0,rst=1,sum= 7,rb=1,roll=1,win=1,lose=0,next_state=2
# at                  930,clk=1,rst=1,sum= 7,rb=1,roll=1,win=1,lose=0,next_state=2
# at                  940,clk=0,rst=1,sum= 7,rb=1,roll=1,win=1,lose=0,next_state=2
# at                  950,clk=1,rst=1,sum= 7,rb=1,roll=1,win=1,lose=0,next_state=2
# at                  960,clk=0,rst=1,sum= 7,rb=1,roll=1,win=1,lose=0,next_state=2
# at                  970,clk=1,rst=1,sum= 7,rb=1,roll=1,win=1,lose=0,next_state=2
# at                  980,clk=0,rst=1,sum= 7,rb=1,roll=1,win=1,lose=0,next_state=2
# at                  990,clk=1,rst=1,sum= 7,rb=1,roll=1,win=1,lose=0,next_state=2
# at                 1000,clk=0,rst=1,sum= 7,rb=1,roll=1,win=1,lose=0,next_state=2
# at                 1010,clk=1,rst=1,sum= 7,rb=1,roll=1,win=1,lose=0,next_state=2
# at                 1020,clk=0,rst=1,sum= 7,rb=1,roll=1,win=1,lose=0,next_state=2
# at                 1030,clk=1,rst=1,sum= 7,rb=1,roll=1,win=1,lose=0,next_state=2
# at                 1040,clk=0,rst=1,sum= 7,rb=1,roll=1,win=1,lose=0,next_state=2
# at                 1050,clk=1,rst=1,sum= 7,rb=1,roll=1,win=1,lose=0,next_state=2
# at                 1060,clk=0,rst=1,sum= 7,rb=1,roll=1,win=1,lose=0,next_state=2
# at                 1070,clk=1,rst=1,sum= 7,rb=1,roll=1,win=1,lose=0,next_state=2
# at                 1080,clk=0,rst=1,sum= 7,rb=1,roll=1,win=1,lose=0,next_state=2
# at                 1090,clk=1,rst=1,sum= 7,rb=1,roll=1,win=1,lose=0,next_state=2
# at                 1100,clk=0,rst=1,sum= 7,rb=1,roll=1,win=1,lose=0,next_state=2
# at                 1110,clk=1,rst=1,sum= 7,rb=1,roll=1,win=1,lose=0,next_state=2
# at                 1120,clk=0,rst=1,sum= 7,rb=1,roll=1,win=1,lose=0,next_state=2
# at                 1130,clk=1,rst=1,sum= 7,rb=1,roll=1,win=1,lose=0,next_state=2
# at                 1140,clk=0,rst=1,sum= 7,rb=1,roll=1,win=1,lose=0,next_state=2
# at                 1150,clk=1,rst=1,sum= 7,rb=1,roll=1,win=1,lose=0,next_state=2
# at                 1160,clk=0,rst=1,sum= 7,rb=1,roll=1,win=1,lose=0,next_state=2
# at                 1170,clk=1,rst=1,sum= 7,rb=1,roll=1,win=1,lose=0,next_state=2
# at                 1180,clk=0,rst=1,sum= 7,rb=1,roll=1,win=1,lose=0,next_state=2
# at                 1190,clk=1,rst=1,sum= 7,rb=1,roll=1,win=1,lose=0,next_state=2
# at                 1200,clk=0,rst=1,sum= 7,rb=1,roll=1,win=1,lose=0,next_state=2
# at                 1210,clk=1,rst=1,sum= 7,rb=1,roll=1,win=1,lose=0,next_state=2
# at                 1220,clk=0,rst=1,sum= 7,rb=1,roll=1,win=1,lose=0,next_state=2
# at                 1230,clk=1,rst=1,sum= 7,rb=1,roll=1,win=1,lose=0,next_state=2
# at                 1240,clk=0,rst=1,sum= 7,rb=1,roll=1,win=1,lose=0,next_state=2
# at                 1250,clk=1,rst=1,sum= 7,rb=1,roll=1,win=1,lose=0,next_state=2
# at                 1260,clk=0,rst=1,sum= 7,rb=1,roll=1,win=1,lose=0,next_state=2
# at                 1270,clk=1,rst=1,sum= 7,rb=1,roll=1,win=1,lose=0,next_state=2
# at                 1280,clk=0,rst=1,sum= 7,rb=1,roll=1,win=1,lose=0,next_state=2
# at                 1290,clk=1,rst=1,sum= 7,rb=1,roll=1,win=1,lose=0,next_state=2
# at                 1300,clk=0,rst=1,sum= 7,rb=1,roll=1,win=1,lose=0,next_state=2
# at                 1310,clk=1,rst=1,sum= 7,rb=1,roll=1,win=1,lose=0,next_state=2
# at                 1320,clk=0,rst=1,sum= 7,rb=1,roll=1,win=1,lose=0,next_state=2
# at                 1330,clk=1,rst=1,sum= 7,rb=1,roll=1,win=1,lose=0,next_state=2
# at                 1340,clk=0,rst=1,sum= 7,rb=1,roll=1,win=1,lose=0,next_state=2
# at                 1350,clk=1,rst=1,sum= 7,rb=1,roll=1,win=1,lose=0,next_state=2
# at                 1360,clk=0,rst=1,sum= 7,rb=1,roll=1,win=1,lose=0,next_state=2
# at                 1370,clk=1,rst=1,sum= 7,rb=1,roll=1,win=1,lose=0,next_state=2
# at                 1380,clk=0,rst=1,sum= 7,rb=1,roll=1,win=1,lose=0,next_state=2
# at                 1390,clk=1,rst=1,sum= 7,rb=1,roll=1,win=1,lose=0,next_state=2
# at                 1400,clk=0,rst=1,sum= 7,rb=1,roll=1,win=1,lose=0,next_state=2
# at                 1410,clk=1,rst=1,sum= 7,rb=1,roll=1,win=1,lose=0,next_state=2
# at                 1420,clk=0,rst=1,sum= 7,rb=1,roll=1,win=1,lose=0,next_state=2
# at                 1430,clk=1,rst=1,sum= 7,rb=1,roll=1,win=1,lose=0,next_state=2
# at                 1440,clk=0,rst=1,sum= 7,rb=1,roll=1,win=1,lose=0,next_state=2
# at                 1450,clk=1,rst=1,sum= 7,rb=1,roll=1,win=1,lose=0,next_state=2
# at                 1460,clk=0,rst=1,sum= 7,rb=1,roll=1,win=1,lose=0,next_state=2
# at                 1470,clk=1,rst=1,sum= 7,rb=1,roll=1,win=1,lose=0,next_state=2
# at                 1480,clk=0,rst=1,sum= 7,rb=1,roll=1,win=1,lose=0,next_state=2
# at                 1490,clk=1,rst=1,sum= 7,rb=1,roll=1,win=1,lose=0,next_state=2
# at                 1500,clk=0,rst=1,sum= 7,rb=1,roll=1,win=1,lose=0,next_state=2
# at                 1510,clk=1,rst=1,sum= 7,rb=1,roll=1,win=1,lose=0,next_state=2
# at                 1520,clk=0,rst=1,sum= 7,rb=1,roll=1,win=1,lose=0,next_state=2
# at                 1530,clk=1,rst=1,sum= 7,rb=1,roll=1,win=1,lose=0,next_state=2
# at                 1540,clk=0,rst=1,sum= 7,rb=1,roll=1,win=1,lose=0,next_state=2
# at                 1550,clk=1,rst=1,sum= 7,rb=1,roll=1,win=1,lose=0,next_state=2
# at                 1560,clk=0,rst=1,sum= 7,rb=1,roll=1,win=1,lose=0,next_state=2
# at                 1570,clk=1,rst=1,sum= 7,rb=1,roll=1,win=1,lose=0,next_state=2
# at                 1580,clk=0,rst=1,sum= 7,rb=1,roll=1,win=1,lose=0,next_state=2
# at                 1590,clk=1,rst=1,sum= 7,rb=1,roll=1,win=1,lose=0,next_state=2
# at                 1600,clk=0,rst=1,sum= 7,rb=1,roll=1,win=1,lose=0,next_state=2
# at                 1610,clk=1,rst=1,sum= 7,rb=1,roll=1,win=1,lose=0,next_state=2
# at                 1620,clk=0,rst=1,sum= 7,rb=1,roll=1,win=1,lose=0,next_state=2
# at                 1630,clk=1,rst=1,sum= 7,rb=1,roll=1,win=1,lose=0,next_state=2
# at                 1640,clk=0,rst=1,sum= 7,rb=1,roll=1,win=1,lose=0,next_state=2
# at                 1650,clk=1,rst=1,sum= 7,rb=1,roll=1,win=1,lose=0,next_state=2
# at                 1660,clk=0,rst=1,sum= 7,rb=1,roll=1,win=1,lose=0,next_state=2
# at                 1670,clk=1,rst=1,sum= 7,rb=1,roll=1,win=1,lose=0,next_state=2
# at                 1680,clk=0,rst=1,sum= 7,rb=1,roll=1,win=1,lose=0,next_state=2
# at                 1690,clk=1,rst=1,sum= 7,rb=1,roll=1,win=1,lose=0,next_state=2
# at                 1700,clk=0,rst=1,sum= 7,rb=1,roll=1,win=1,lose=0,next_state=2
# at                 1710,clk=1,rst=1,sum= 7,rb=1,roll=1,win=1,lose=0,next_state=2
# at                 1720,clk=0,rst=1,sum= 7,rb=1,roll=1,win=1,lose=0,next_state=2
# at                 1730,clk=1,rst=1,sum= 7,rb=1,roll=1,win=1,lose=0,next_state=2
# at                 1740,clk=0,rst=1,sum= 7,rb=1,roll=1,win=1,lose=0,next_state=2
# at                 1750,clk=1,rst=1,sum= 7,rb=1,roll=1,win=1,lose=0,next_state=2
# at                 1760,clk=0,rst=1,sum= 7,rb=1,roll=1,win=1,lose=0,next_state=2
# at                 1770,clk=1,rst=1,sum= 7,rb=1,roll=1,win=1,lose=0,next_state=2
# at                 1780,clk=0,rst=1,sum= 7,rb=1,roll=1,win=1,lose=0,next_state=2
# at                 1790,clk=1,rst=1,sum= 7,rb=1,roll=1,win=1,lose=0,next_state=2
# at                 1800,clk=0,rst=1,sum= 7,rb=1,roll=1,win=1,lose=0,next_state=2
# at                 1810,clk=1,rst=1,sum= 7,rb=1,roll=1,win=1,lose=0,next_state=2
# at                 1820,clk=0,rst=1,sum= 7,rb=1,roll=1,win=1,lose=0,next_state=2
# at                 1830,clk=1,rst=1,sum= 7,rb=1,roll=1,win=1,lose=0,next_state=2
# at                 1840,clk=0,rst=1,sum= 7,rb=1,roll=1,win=1,lose=0,next_state=2
# at                 1850,clk=1,rst=1,sum= 7,rb=1,roll=1,win=1,lose=0,next_state=2
# at                 1860,clk=0,rst=1,sum= 7,rb=1,roll=1,win=1,lose=0,next_state=2
# at                 1870,clk=1,rst=1,sum= 7,rb=1,roll=1,win=1,lose=0,next_state=2
# at                 1880,clk=0,rst=1,sum= 7,rb=1,roll=1,win=1,lose=0,next_state=2
# at                 1890,clk=1,rst=1,sum= 7,rb=1,roll=1,win=1,lose=0,next_state=2
# at                 1900,clk=0,rst=1,sum= 7,rb=1,roll=1,win=1,lose=0,next_state=2
# at                 1910,clk=1,rst=1,sum= 7,rb=1,roll=1,win=1,lose=0,next_state=2
# at                 1920,clk=0,rst=1,sum= 7,rb=1,roll=1,win=1,lose=0,next_state=2
# at                 1930,clk=1,rst=1,sum= 7,rb=1,roll=1,win=1,lose=0,next_state=2
# at                 1940,clk=0,rst=1,sum= 7,rb=1,roll=1,win=1,lose=0,next_state=2
# at                 1950,clk=1,rst=1,sum= 7,rb=1,roll=1,win=1,lose=0,next_state=2
# at                 1960,clk=0,rst=1,sum= 7,rb=1,roll=1,win=1,lose=0,next_state=2
# at                 1970,clk=1,rst=1,sum= 7,rb=1,roll=1,win=1,lose=0,next_state=2
# at                 1980,clk=0,rst=1,sum= 7,rb=1,roll=1,win=1,lose=0,next_state=2
# at                 1990,clk=1,rst=1,sum= 7,rb=1,roll=1,win=1,lose=0,next_state=2
# at                 2000,clk=0,rst=1,sum= 7,rb=1,roll=1,win=1,lose=0,next_state=2
# at                 2010,clk=1,rst=1,sum= 7,rb=1,roll=1,win=1,lose=0,next_state=2
# at                 2020,clk=0,rst=1,sum= 7,rb=1,roll=1,win=1,lose=0,next_state=2
# at                 2030,clk=1,rst=1,sum= 7,rb=1,roll=1,win=1,lose=0,next_state=2
# at                 2040,clk=0,rst=1,sum= 7,rb=1,roll=1,win=1,lose=0,next_state=2
# at                 2050,clk=1,rst=1,sum= 7,rb=1,roll=1,win=1,lose=0,next_state=2
# at                 2060,clk=0,rst=1,sum= 7,rb=1,roll=1,win=1,lose=0,next_state=2
# at                 2070,clk=1,rst=1,sum= 7,rb=1,roll=1,win=1,lose=0,next_state=2
# at                 2080,clk=0,rst=1,sum= 7,rb=1,roll=1,win=1,lose=0,next_state=2
# at                 2090,clk=1,rst=1,sum= 7,rb=1,roll=1,win=1,lose=0,next_state=2
# at                 2100,clk=0,rst=1,sum= 7,rb=1,roll=1,win=1,lose=0,next_state=2
# at                 2110,clk=1,rst=1,sum= 7,rb=1,roll=1,win=1,lose=0,next_state=2
# at                 2120,clk=0,rst=1,sum= 7,rb=1,roll=1,win=1,lose=0,next_state=2
# at                 2130,clk=1,rst=1,sum= 7,rb=1,roll=1,win=1,lose=0,next_state=2
# at                 2140,clk=0,rst=1,sum= 7,rb=1,roll=1,win=1,lose=0,next_state=2
# at                 2150,clk=1,rst=1,sum= 7,rb=1,roll=1,win=1,lose=0,next_state=2
# at                 2160,clk=0,rst=1,sum= 7,rb=1,roll=1,win=1,lose=0,next_state=2
# at                 2170,clk=1,rst=1,sum= 7,rb=1,roll=1,win=1,lose=0,next_state=2
# at                 2180,clk=0,rst=1,sum= 7,rb=1,roll=1,win=1,lose=0,next_state=2
# at                 2190,clk=1,rst=1,sum= 7,rb=1,roll=1,win=1,lose=0,next_state=2
# at                 2200,clk=0,rst=1,sum= 7,rb=1,roll=1,win=1,lose=0,next_state=2
# at                 2210,clk=1,rst=1,sum= 7,rb=1,roll=1,win=1,lose=0,next_state=2
# at                 2220,clk=0,rst=1,sum= 7,rb=1,roll=1,win=1,lose=0,next_state=2
# at                 2230,clk=1,rst=1,sum= 7,rb=1,roll=1,win=1,lose=0,next_state=2
# at                 2240,clk=0,rst=1,sum= 7,rb=1,roll=1,win=1,lose=0,next_state=2
# at                 2250,clk=1,rst=1,sum= 7,rb=1,roll=1,win=1,lose=0,next_state=2
# at                 2260,clk=0,rst=1,sum= 7,rb=1,roll=1,win=1,lose=0,next_state=2
# at                 2270,clk=1,rst=1,sum= 7,rb=1,roll=1,win=1,lose=0,next_state=2
# at                 2280,clk=0,rst=1,sum= 7,rb=1,roll=1,win=1,lose=0,next_state=2
# at                 2290,clk=1,rst=1,sum= 7,rb=1,roll=1,win=1,lose=0,next_state=2
# at                 2300,clk=0,rst=1,sum= 7,rb=1,roll=1,win=1,lose=0,next_state=2
# at                 2310,clk=1,rst=1,sum= 7,rb=1,roll=1,win=1,lose=0,next_state=2
# at                 2320,clk=0,rst=1,sum= 7,rb=1,roll=1,win=1,lose=0,next_state=2
# at                 2330,clk=1,rst=1,sum= 7,rb=1,roll=1,win=1,lose=0,next_state=2
# at                 2340,clk=0,rst=1,sum= 7,rb=1,roll=1,win=1,lose=0,next_state=2
# at                 2350,clk=1,rst=1,sum= 7,rb=1,roll=1,win=1,lose=0,next_state=2
# at                 2360,clk=0,rst=1,sum= 7,rb=1,roll=1,win=1,lose=0,next_state=2
# at                 2370,clk=1,rst=1,sum= 7,rb=1,roll=1,win=1,lose=0,next_state=2
# at                 2380,clk=0,rst=1,sum= 7,rb=1,roll=1,win=1,lose=0,next_state=2
# at                 2390,clk=1,rst=1,sum= 7,rb=1,roll=1,win=1,lose=0,next_state=2
# at                 2400,clk=0,rst=1,sum= 7,rb=1,roll=1,win=1,lose=0,next_state=2
# at                 2410,clk=1,rst=1,sum= 7,rb=1,roll=1,win=1,lose=0,next_state=2
# at                 2420,clk=0,rst=1,sum= 7,rb=1,roll=1,win=1,lose=0,next_state=2
# at                 2430,clk=1,rst=1,sum= 7,rb=1,roll=1,win=1,lose=0,next_state=2
# at                 2440,clk=0,rst=1,sum= 7,rb=1,roll=1,win=1,lose=0,next_state=2
# at                 2450,clk=1,rst=1,sum= 7,rb=1,roll=1,win=1,lose=0,next_state=2
# at                 2460,clk=0,rst=1,sum= 7,rb=1,roll=1,win=1,lose=0,next_state=2
# at                 2470,clk=1,rst=1,sum= 7,rb=1,roll=1,win=1,lose=0,next_state=2
# at                 2480,clk=0,rst=1,sum= 7,rb=1,roll=1,win=1,lose=0,next_state=2
# at                 2490,clk=1,rst=1,sum= 7,rb=1,roll=1,win=1,lose=0,next_state=2
# at                 2500,clk=0,rst=1,sum= 7,rb=1,roll=1,win=1,lose=0,next_state=2
# at                 2510,clk=1,rst=1,sum= 7,rb=1,roll=1,win=1,lose=0,next_state=2
# at                 2520,clk=0,rst=1,sum= 7,rb=1,roll=1,win=1,lose=0,next_state=2
# at                 2530,clk=1,rst=1,sum= 7,rb=1,roll=1,win=1,lose=0,next_state=2
# at                 2540,clk=0,rst=1,sum= 7,rb=1,roll=1,win=1,lose=0,next_state=2
# at                 2550,clk=1,rst=1,sum= 7,rb=1,roll=1,win=1,lose=0,next_state=2
# at                 2560,clk=0,rst=1,sum= 7,rb=1,roll=1,win=1,lose=0,next_state=2
# at                 2570,clk=1,rst=1,sum= 7,rb=1,roll=1,win=1,lose=0,next_state=2
# at                 2580,clk=0,rst=1,sum= 7,rb=1,roll=1,win=1,lose=0,next_state=2
# at                 2590,clk=1,rst=1,sum= 7,rb=1,roll=1,win=1,lose=0,next_state=2
# at                 2600,clk=0,rst=1,sum= 7,rb=1,roll=1,win=1,lose=0,next_state=2
# at                 2610,clk=1,rst=1,sum= 7,rb=1,roll=1,win=1,lose=0,next_state=2
# at                 2620,clk=0,rst=1,sum= 7,rb=1,roll=1,win=1,lose=0,next_state=2
# at                 2630,clk=1,rst=1,sum= 7,rb=1,roll=1,win=1,lose=0,next_state=2
# at                 2640,clk=0,rst=1,sum= 7,rb=1,roll=1,win=1,lose=0,next_state=2
# at                 2650,clk=1,rst=1,sum= 7,rb=1,roll=1,win=1,lose=0,next_state=2
# at                 2660,clk=0,rst=1,sum= 7,rb=1,roll=1,win=1,lose=0,next_state=2
# at                 2670,clk=1,rst=1,sum= 7,rb=1,roll=1,win=1,lose=0,next_state=2
# at                 2680,clk=0,rst=1,sum= 7,rb=1,roll=1,win=1,lose=0,next_state=2
# at                 2690,clk=1,rst=1,sum= 7,rb=1,roll=1,win=1,lose=0,next_state=2
# at                 2700,clk=0,rst=1,sum= 7,rb=1,roll=1,win=1,lose=0,next_state=2
# at                 2710,clk=1,rst=1,sum= 7,rb=1,roll=1,win=1,lose=0,next_state=2
# at                 2720,clk=0,rst=1,sum= 7,rb=1,roll=1,win=1,lose=0,next_state=2
# at                 2730,clk=1,rst=1,sum= 7,rb=1,roll=1,win=1,lose=0,next_state=2
# at                 2740,clk=0,rst=1,sum= 7,rb=1,roll=1,win=1,lose=0,next_state=2
# at                 2750,clk=1,rst=1,sum= 7,rb=1,roll=1,win=1,lose=0,next_state=2
# at                 2760,clk=0,rst=1,sum= 7,rb=1,roll=1,win=1,lose=0,next_state=2
# at                 2770,clk=1,rst=1,sum= 7,rb=1,roll=1,win=1,lose=0,next_state=2
# at                 2780,clk=0,rst=1,sum= 7,rb=1,roll=1,win=1,lose=0,next_state=2
# at                 2790,clk=1,rst=1,sum= 7,rb=1,roll=1,win=1,lose=0,next_state=2
# at                 2800,clk=0,rst=1,sum= 7,rb=1,roll=1,win=1,lose=0,next_state=2
# at                 2810,clk=1,rst=1,sum= 7,rb=1,roll=1,win=1,lose=0,next_state=2
# at                 2820,clk=0,rst=1,sum= 7,rb=1,roll=1,win=1,lose=0,next_state=2
# at                 2830,clk=1,rst=1,sum= 7,rb=1,roll=1,win=1,lose=0,next_state=2
# at                 2840,clk=0,rst=1,sum= 7,rb=1,roll=1,win=1,lose=0,next_state=2
# at                 2850,clk=1,rst=1,sum= 7,rb=1,roll=1,win=1,lose=0,next_state=2
# at                 2860,clk=0,rst=1,sum= 7,rb=1,roll=1,win=1,lose=0,next_state=2
# at                 2870,clk=1,rst=1,sum= 7,rb=1,roll=1,win=1,lose=0,next_state=2
# at                 2880,clk=0,rst=1,sum= 7,rb=1,roll=1,win=1,lose=0,next_state=2
# at                 2890,clk=1,rst=1,sum= 7,rb=1,roll=1,win=1,lose=0,next_state=2
# at                 2900,clk=0,rst=1,sum= 7,rb=1,roll=1,win=1,lose=0,next_state=2
# at                 2910,clk=1,rst=1,sum= 7,rb=1,roll=1,win=1,lose=0,next_state=2
# at                 2920,clk=0,rst=1,sum= 7,rb=1,roll=1,win=1,lose=0,next_state=2
# at                 2930,clk=1,rst=1,sum= 7,rb=1,roll=1,win=1,lose=0,next_state=2
# at                 2940,clk=0,rst=1,sum= 7,rb=1,roll=1,win=1,lose=0,next_state=2
# at                 2950,clk=1,rst=1,sum= 7,rb=1,roll=1,win=1,lose=0,next_state=2
# at                 2960,clk=0,rst=1,sum= 7,rb=1,roll=1,win=1,lose=0,next_state=2
# at                 2970,clk=1,rst=1,sum= 7,rb=1,roll=1,win=1,lose=0,next_state=2
# at                 2980,clk=0,rst=1,sum= 7,rb=1,roll=1,win=1,lose=0,next_state=2
# at                 2990,clk=1,rst=1,sum= 7,rb=1,roll=1,win=1,lose=0,next_state=2
# at                 3000,clk=0,rst=1,sum= 7,rb=1,roll=1,win=1,lose=0,next_state=2
# at                 3010,clk=1,rst=1,sum= 7,rb=1,roll=1,win=1,lose=0,next_state=2
# at                 3020,clk=0,rst=1,sum= 7,rb=1,roll=1,win=1,lose=0,next_state=2
# at                 3030,clk=1,rst=1,sum= 7,rb=1,roll=1,win=1,lose=0,next_state=2
# at                 3040,clk=0,rst=1,sum= 7,rb=1,roll=1,win=1,lose=0,next_state=2
