Elevator/testbench/transcript
# //  Questa Sim-64
# //  Version 10.7c win64 Aug 18 2018
# //
# //  Copyright 1991-2018 Mentor Graphics Corporation
# //  All Rights Reserved.
# //
# //  QuestaSim and its associated documentation contain trade
# //  secrets and commercial or financial information that are the property of
# //  Mentor Graphics Corporation and are privileged, confidential,
# //  and exempt from disclosure under the Freedom of Information Act,
# //  5 U.S.C. Section 552. Furthermore, this information
# //  is prohibited from disclosure under the Trade Secrets Act,
# //  18 U.S.C. Section 1905.
# //
# OpenFile tb.sv
vsim -voptargs=+acc work.Lift8_Tb
# vsim -voptargs="+acc" work.Lift8_Tb 
# Start time: 15:22:06 on Jun 11,2024
# ** Note: (vsim-3812) Design is being optimized...
# ** Note: (vopt-143) Recognized 2 FSMs in module "Lift8(fast)".
# Loading sv_std.std
# Loading work.Lift8_Tb(fast)
# Loading work.Lift8(fast)
add wave sim:/Lift8_Tb/dut/*
run -all
# Starting simulation...
# Time=                   0,clk=0,reset=1,req_floor=x,idle=x,door=x,Up=x,Down=x,current_floor=x,max_request=x,min_request=x,requests=xx
# Time=                   5,clk=1,reset=1,req_floor=x,idle=0,door=0,Up=1,Down=0,current_floor=0,max_request=0,min_request=7,requests=00
# Time=                  10,clk=0,reset=0,req_floor=1,idle=0,door=0,Up=1,Down=0,current_floor=0,max_request=1,min_request=1,requests=02
# Time=                  15,clk=1,reset=0,req_floor=1,idle=1,door=1,Up=1,Down=0,current_floor=1,max_request=1,min_request=1,requests=00
# Time=                  20,clk=0,reset=0,req_floor=1,idle=1,door=1,Up=1,Down=0,current_floor=1,max_request=1,min_request=1,requests=00
# Time=                  25,clk=1,reset=0,req_floor=1,idle=1,door=0,Up=1,Down=0,current_floor=1,max_request=1,min_request=1,requests=00
# Time=                  30,clk=0,reset=0,req_floor=1,idle=1,door=0,Up=1,Down=0,current_floor=1,max_request=1,min_request=1,requests=00
# Time=                  35,clk=1,reset=0,req_floor=1,idle=1,door=0,Up=1,Down=0,current_floor=1,max_request=1,min_request=1,requests=00
# Time=                  40,clk=0,reset=0,req_floor=4,idle=1,door=0,Up=1,Down=0,current_floor=1,max_request=4,min_request=1,requests=10
# Time=                  45,clk=1,reset=0,req_floor=4,idle=0,door=0,Up=1,Down=0,current_floor=2,max_request=4,min_request=1,requests=10
# Time=                  50,clk=0,reset=0,req_floor=3,idle=0,door=0,Up=1,Down=0,current_floor=2,max_request=4,min_request=1,requests=18
# Time=                  55,clk=1,reset=0,req_floor=3,idle=1,door=1,Up=1,Down=0,current_floor=3,max_request=4,min_request=1,requests=10
# Time=                  60,clk=0,reset=0,req_floor=3,idle=1,door=1,Up=1,Down=0,current_floor=3,max_request=4,min_request=1,requests=10
# Time=                  65,clk=1,reset=0,req_floor=3,idle=1,door=1,Up=1,Down=0,current_floor=4,max_request=4,min_request=1,requests=00
# Time=                  70,clk=0,reset=0,req_floor=7,idle=1,door=1,Up=1,Down=0,current_floor=4,max_request=7,min_request=1,requests=80
# Time=                  75,clk=1,reset=0,req_floor=7,idle=0,door=0,Up=1,Down=0,current_floor=5,max_request=7,min_request=1,requests=80
# Time=                  80,clk=0,reset=0,req_floor=7,idle=0,door=0,Up=1,Down=0,current_floor=5,max_request=7,min_request=1,requests=80
# Time=                  85,clk=1,reset=0,req_floor=7,idle=0,door=0,Up=1,Down=0,current_floor=6,max_request=7,min_request=1,requests=80
# Time=                  90,clk=0,reset=0,req_floor=7,idle=0,door=0,Up=1,Down=0,current_floor=6,max_request=7,min_request=1,requests=80
# Time=                  95,clk=1,reset=0,req_floor=7,idle=1,door=0,Up=1,Down=0,current_floor=6,max_request=7,min_request=1,requests=80
# Time=                 100,clk=0,reset=0,req_floor=7,idle=1,door=0,Up=1,Down=0,current_floor=6,max_request=7,min_request=1,requests=80
# Time=                 105,clk=1,reset=0,req_floor=7,idle=1,door=0,Up=1,Down=0,current_floor=6,max_request=7,min_request=1,requests=80
# Time=                 110,clk=0,reset=0,req_floor=7,idle=1,door=0,Up=1,Down=0,current_floor=6,max_request=7,min_request=1,requests=80
# Time=                 115,clk=1,reset=0,req_floor=7,idle=1,door=0,Up=1,Down=0,current_floor=6,max_request=7,min_request=1,requests=80
# Time=                 120,clk=0,reset=0,req_floor=2,idle=1,door=0,Up=1,Down=0,current_floor=6,max_request=7,min_request=2,requests=84
# Time=                 125,clk=1,reset=0,req_floor=2,idle=1,door=1,Up=1,Down=0,current_floor=7,max_request=7,min_request=2,requests=04
# Time=                 130,clk=0,reset=0,req_floor=2,idle=1,door=1,Up=1,Down=0,current_floor=7,max_request=7,min_request=2,requests=04
# Time=                 135,clk=1,reset=0,req_floor=2,idle=1,door=0,Up=0,Down=1,current_floor=7,max_request=7,min_request=2,requests=04
# Time=                 140,clk=0,reset=0,req_floor=2,idle=1,door=0,Up=0,Down=1,current_floor=7,max_request=7,min_request=2,requests=04
# Time=                 145,clk=1,reset=0,req_floor=2,idle=0,door=0,Up=0,Down=1,current_floor=6,max_request=7,min_request=2,requests=04
# Time=                 150,clk=0,reset=0,req_floor=2,idle=0,door=0,Up=0,Down=1,current_floor=6,max_request=7,min_request=2,requests=04
# Time=                 155,clk=1,reset=0,req_floor=2,idle=0,door=0,Up=0,Down=1,current_floor=5,max_request=7,min_request=2,requests=04
# Time=                 160,clk=0,reset=0,req_floor=6,idle=0,door=0,Up=0,Down=1,current_floor=5,max_request=6,min_request=2,requests=44
# Time=                 165,clk=1,reset=0,req_floor=6,idle=0,door=0,Up=0,Down=1,current_floor=4,max_request=6,min_request=2,requests=44
# Time=                 170,clk=0,reset=0,req_floor=6,idle=0,door=0,Up=0,Down=1,current_floor=4,max_request=6,min_request=2,requests=44
# Time=                 175,clk=1,reset=0,req_floor=6,idle=0,door=0,Up=0,Down=1,current_floor=3,max_request=6,min_request=2,requests=44
# Time=                 180,clk=0,reset=0,req_floor=6,idle=0,door=0,Up=0,Down=1,current_floor=3,max_request=6,min_request=2,requests=44
# Time=                 185,clk=1,reset=0,req_floor=6,idle=1,door=1,Up=0,Down=1,current_floor=2,max_request=6,min_request=2,requests=40
# Time=                 190,clk=0,reset=0,req_floor=6,idle=1,door=1,Up=0,Down=1,current_floor=2,max_request=6,min_request=2,requests=40
# Time=                 195,clk=1,reset=0,req_floor=6,idle=1,door=0,Up=1,Down=0,current_floor=2,max_request=6,min_request=2,requests=40
# Time=                 200,clk=0,reset=0,req_floor=1,idle=1,door=0,Up=1,Down=0,current_floor=2,max_request=6,min_request=1,requests=42
# Time=                 205,clk=1,reset=0,req_floor=1,idle=0,door=0,Up=1,Down=0,current_floor=3,max_request=6,min_request=1,requests=42
# Time=                 210,clk=0,reset=0,req_floor=1,idle=0,door=0,Up=1,Down=0,current_floor=3,max_request=6,min_request=1,requests=42
# Time=                 215,clk=1,reset=0,req_floor=1,idle=0,door=0,Up=1,Down=0,current_floor=4,max_request=6,min_request=1,requests=42
# Time=                 220,clk=0,reset=0,req_floor=1,idle=0,door=0,Up=1,Down=0,current_floor=4,max_request=6,min_request=1,requests=42
# Time=                 225,clk=1,reset=0,req_floor=1,idle=0,door=0,Up=1,Down=0,current_floor=5,max_request=6,min_request=1,requests=42
# Time=                 230,clk=0,reset=0,req_floor=1,idle=0,door=0,Up=1,Down=0,current_floor=5,max_request=6,min_request=1,requests=42
# Time=                 235,clk=1,reset=0,req_floor=1,idle=1,door=1,Up=1,Down=0,current_floor=6,max_request=6,min_request=1,requests=02
# Time=                 240,clk=0,reset=0,req_floor=1,idle=1,door=1,Up=1,Down=0,current_floor=6,max_request=6,min_request=1,requests=02
# Time=                 245,clk=1,reset=0,req_floor=1,idle=1,door=0,Up=0,Down=1,current_floor=6,max_request=6,min_request=1,requests=02
# Time=                 250,clk=0,reset=0,req_floor=1,idle=1,door=0,Up=0,Down=1,current_floor=6,max_request=6,min_request=1,requests=02
# Time=                 255,clk=1,reset=0,req_floor=1,idle=0,door=0,Up=0,Down=1,current_floor=5,max_request=6,min_request=1,requests=02
# Time=                 260,clk=0,reset=0,req_floor=1,idle=0,door=0,Up=0,Down=1,current_floor=5,max_request=6,min_request=1,requests=02
# Time=                 265,clk=1,reset=0,req_floor=1,idle=0,door=0,Up=0,Down=1,current_floor=4,max_request=6,min_request=1,requests=02
# Time=                 270,clk=0,reset=0,req_floor=1,idle=0,door=0,Up=0,Down=1,current_floor=4,max_request=6,min_request=1,requests=02
# Time=                 275,clk=1,reset=0,req_floor=1,idle=0,door=0,Up=0,Down=1,current_floor=3,max_request=6,min_request=1,requests=02
# Time=                 280,clk=0,reset=0,req_floor=1,idle=0,door=0,Up=0,Down=1,current_floor=3,max_request=6,min_request=1,requests=02
# Time=                 285,clk=1,reset=0,req_floor=1,idle=0,door=0,Up=0,Down=1,current_floor=2,max_request=6,min_request=1,requests=02
# Time=                 290,clk=0,reset=0,req_floor=1,idle=0,door=0,Up=0,Down=1,current_floor=2,max_request=6,min_request=1,requests=02
# Time=                 295,clk=1,reset=0,req_floor=1,idle=1,door=1,Up=0,Down=1,current_floor=1,max_request=6,min_request=1,requests=00
# Time=                 300,clk=0,reset=0,req_floor=1,idle=1,door=1,Up=0,Down=1,current_floor=1,max_request=6,min_request=1,requests=00
# Simulation finished.
# ** Note: $finish    : tb.sv(70)
#    Time: 305 ns  Iteration: 0  Instance: /Lift8_Tb
# 1
# Break in Module Lift8_Tb at tb.sv line 70
# End time: 15:23:06 on Jun 11,2024, Elapsed time: 0:01:00
# Errors: 0, Warnings: 0
